…
-   Add a `group_by()` to your code to `summarize()` within each year.

``` r
# Change this code to summarize by year
votes_processed %>%
  group_by(year) %>%
  summarize(total = n(),
            percent_yes = mean(vote == 1))
```

    ## # A tibble: 34 × 3
    ##     year total percent_yes
    ##    <dbl> <int>       <dbl>
    ##  1  1947  2039       0.569
    ##  2  1949  3469       0.438
    ##  3  1951  1434       0.585
    ##  4  1953  1537       0.632
    ##  5  1955  2169       0.695
    ##  6  1957  2708       0.609
    ##  7  1959  4326       0.588
    ##  8  1961  7482       0.573
    ##  9  1963  3308       0.729
    ## 10  1965  4382       0.708
    ## # … with 24 more rows
…
-   Arrange the countries by the same variable, but in descending order.

``` r
# You have the votes summarized by country
by_country <- votes_processed %>%
  group_by(country) %>%
  summarize(total = n(),
            percent_yes = mean(vote == 1))

# Print the by_country dataset
by_country
```

    ## # A tibble: 200 × 3
    ##    country           total percent_yes
    ##    <chr>             <int>       <dbl>
    ##  1 Afghanistan        2373       0.859
    ##  2 Albania            1695       0.717
    ##  3 Algeria            2213       0.899
    ##  4 Andorra             719       0.638
    ##  5 Angola             1431       0.924
    ##  6 Antigua & Barbuda  1302       0.912
    ##  7 Argentina          2553       0.768
    ##  8 Armenia             758       0.747
    ##  9 Australia          2575       0.557
    ## 10 Austria            2389       0.622
    ## # … with 190 more rows

``` r
# Sort in ascending order of percent_yes
by_country %>% 
  arrange(percent_yes)
```

    ## # A tibble: 200 × 3
    ##    country                          total percent_yes
    ##    <chr>                            <int>       <dbl>
    ##  1 Zanzibar                             2       0    
    ##  2 United States                     2568       0.269
    ##  3 Palau                              369       0.339
    ##  4 Israel                            2380       0.341
    ##  5 <NA>                              1075       0.397
    ##  6 United Kingdom                    2558       0.417
    ##  7 France                            2527       0.427
    ##  8 Micronesia (Federated States of)   724       0.442
    ##  9 Marshall Islands                   757       0.491
    ## 10 Belgium                           2568       0.492
    ## # … with 190 more rows

``` r
# Now sort in descending order
by_country %>% 
  arrange(desc(percent_yes))
```

    ## # A tibble: 200 × 3
    ##    country              total percent_yes
    ##    <chr>                <int>       <dbl>
    ##  1 São Tomé & Príncipe   1091       0.976
    ##  2 Seychelles             881       0.975
    ##  3 Djibouti              1598       0.961
    ##  4 Guinea-Bissau         1538       0.960
    ##  5 Timor-Leste            326       0.957
    ##  6 Mauritius             1831       0.950
    ##  7 Zimbabwe              1361       0.949
    ##  8 Comoros               1133       0.947
    ##  9 United Arab Emirates  1934       0.947
    ## 10 Mozambique            1701       0.947
    ## # … with 190 more rows
…
Typically in a progressive analysis, when you find that a few of your
observations have very little data while others have plenty, you set
some threshold to filter them out

-   Use `filter()` to remove from the sorted data countries that have
    fewer than 100 votes.

``` r
# Filter out countries with fewer than 100 votes
by_country %>%
  arrange(percent_yes) %>%
  filter(total >= 100)
```

    ## # A tibble: 197 × 3
    ##    country                          total percent_yes
    ##    <chr>                            <int>       <dbl>
    ##  1 United States                     2568       0.269
    ##  2 Palau                              369       0.339
    ##  3 Israel                            2380       0.341
    ##  4 <NA>                              1075       0.397
    ##  5 United Kingdom                    2558       0.417
    ##  6 France                            2527       0.427
    ##  7 Micronesia (Federated States of)   724       0.442
    ##  8 Marshall Islands                   757       0.491
    ##  9 Belgium                           2568       0.492
    ## 10 Canada                            2576       0.508
    ## # … with 187 more rows
…
