…
    ## Warning: package 'tidyr' was built under R version 4.2.1

``` r
# Nest all columns besides country
by_year_country %>%
    nest(-country)
```

    ## Warning: All elements of `...` must be named.
    ## Did you want `data = -country`?

    ## # A tibble: 200 × 2
    ##    country     data                 
    ##    <chr>       <list>               
    ##  1 Afghanistan <grouped_df [34 × 3]>
    ##  2 Argentina   <grouped_df [34 × 3]>
    ##  3 Australia   <grouped_df [34 × 3]>
    ##  4 Belarus     <grouped_df [34 × 3]>
    ##  5 Belgium     <grouped_df [34 × 3]>
    ##  6 Bolivia     <grouped_df [34 × 3]>
    ##  7 Brazil      <grouped_df [34 × 3]>
    ##  8 Canada      <grouped_df [34 × 3]>
    ##  9 Chile       <grouped_df [34 × 3]>
    ## 10 Colombia    <grouped_df [34 × 3]>
    ## # … with 190 more rows
…
``` r
# All countries are nested besides country
nested <- by_year_country %>%
  nest(-country)
```

    ## Warning: All elements of `...` must be named.
    ## Did you want `data = -country`?

``` r
# Print the nested data for Brazil
nested$data[[7]]
```

    ## # A tibble: 34 × 3
    ## # Groups:   year [34]
    ##     year total percent_yes
    ##    <dbl> <int>       <dbl>
    ##  1  1947    38       0.658
    ##  2  1949    64       0.469
    ##  3  1951    25       0.64 
    ##  4  1953    26       0.731
    ##  5  1955    37       0.730
    ##  6  1957    34       0.735
    ##  7  1959    54       0.537
    ##  8  1961    76       0.553
    ##  9  1963    32       0.781
    ## 10  1965    41       0.610
    ## # … with 24 more rows
…
    ## Warning: All elements of `...` must be named.
    ## Did you want `data = -country`?

``` r
# Unnest the data column to return it to its original form
unnest(nested)
```

    ## Warning: `cols` is now required when using unnest().
    ## Please use `cols = c(data)`

    ## # A tibble: 4,744 × 4
    ##    country      year total percent_yes
    ##    <chr>       <dbl> <int>       <dbl>
    ##  1 Afghanistan  1947    34       0.382
    ##  2 Afghanistan  1949    51       0.608
    ##  3 Afghanistan  1951    25       0.76 
    ##  4 Afghanistan  1953    26       0.769
    ##  5 Afghanistan  1955    37       0.730
    ##  6 Afghanistan  1957    34       0.529
    ##  7 Afghanistan  1959    54       0.611
    ##  8 Afghanistan  1961    76       0.605
    ##  9 Afghanistan  1963    32       0.781
    ## 10 Afghanistan  1965    40       0.85 
    ## # … with 4,734 more rows
…
# Perform a linear regression on each item in the data column
by_year_country %>%
  nest(-country) %>%
  mutate(model = map(data, ~ lm(percent_yes ~ year, .)))
```

    ## Warning: All elements of `...` must be named.
    ## Did you want `data = -country`?

    ## # A tibble: 200 × 3
    ##    country     data                  model 
    ##    <chr>       <list>                <list>
    ##  1 Afghanistan <grouped_df [34 × 3]> <lm>  
    ##  2 Argentina   <grouped_df [34 × 3]> <lm>  
    ##  3 Australia   <grouped_df [34 × 3]> <lm>  
    ##  4 Belarus     <grouped_df [34 × 3]> <lm>  
    ##  5 Belgium     <grouped_df [34 × 3]> <lm>  
    ##  6 Bolivia     <grouped_df [34 × 3]> <lm>  
    ##  7 Brazil      <grouped_df [34 × 3]> <lm>  
    ##  8 Canada      <grouped_df [34 × 3]> <lm>  
    ##  9 Chile       <grouped_df [34 × 3]> <lm>  
    ## 10 Colombia    <grouped_df [34 × 3]> <lm>  
    ## # … with 190 more rows
…
``` r
# Load the broom package
library(broom)

# Add another mutate that applies tidy() to each model
by_year_country %>%
  nest(-country) %>%
  mutate(model = map(data, ~ lm(percent_yes ~ year, data = .))) %>%
  mutate(tidied = map(model, tidy))
```

    ## Warning: All elements of `...` must be named.
    ## Did you want `data = -country`?

    ## # A tibble: 200 × 4
    ##    country     data                  model  tidied          
    ##    <chr>       <list>                <list> <list>          
    ##  1 Afghanistan <grouped_df [34 × 3]> <lm>   <tibble [2 × 5]>
    ##  2 Argentina   <grouped_df [34 × 3]> <lm>   <tibble [2 × 5]>
    ##  3 Australia   <grouped_df [34 × 3]> <lm>   <tibble [2 × 5]>
    ##  4 Belarus     <grouped_df [34 × 3]> <lm>   <tibble [2 × 5]>
    ##  5 Belgium     <grouped_df [34 × 3]> <lm>   <tibble [2 × 5]>
    ##  6 Bolivia     <grouped_df [34 × 3]> <lm>   <tibble [2 × 5]>
    ##  7 Brazil      <grouped_df [34 × 3]> <lm>   <tibble [2 × 5]>
    ##  8 Canada      <grouped_df [34 × 3]> <lm>   <tibble [2 × 5]>
    ##  9 Chile       <grouped_df [34 × 3]> <lm>   <tibble [2 × 5]>
    ## 10 Colombia    <grouped_df [34 × 3]> <lm>   <tibble [2 × 5]>
    ## # … with 190 more rows
…
    ## Warning: All elements of `...` must be named.
    ## Did you want `data = -country`?

``` r
# Print the resulting country_coefficients variable
country_coefficients
```

    ## # A tibble: 400 × 8
    ##    country     data         model  term     estimate std.error statistic p.value
    ##    <chr>       <list>       <list> <chr>       <dbl>     <dbl>     <dbl>   <dbl>
    ##  1 Afghanistan <grouped_df> <lm>   (Interc… -1.11e+1  1.47         -7.52 1.44e-8
    ##  2 Afghanistan <grouped_df> <lm>   year      6.01e-3  0.000743      8.09 3.06e-9
    ##  3 Argentina   <grouped_df> <lm>   (Interc… -9.46e+0  2.10         -4.50 8.32e-5
    ##  4 Argentina   <grouped_df> <lm>   year      5.15e-3  0.00106       4.85 3.05e-5
    ##  5 Australia   <grouped_df> <lm>   (Interc… -4.55e+0  2.15         -2.12 4.22e-2
    ##  6 Australia   <grouped_df> <lm>   year      2.57e-3  0.00108       2.37 2.42e-2
    ##  7 Belarus     <grouped_df> <lm>   (Interc… -7.00e+0  1.50         -4.66 5.33e-5
    ##  8 Belarus     <grouped_df> <lm>   year      3.91e-3  0.000759      5.15 1.28e-5
    ##  9 Belgium     <grouped_df> <lm>   (Interc… -5.85e+0  1.52         -3.86 5.22e-4
    ## 10 Belgium     <grouped_df> <lm>   year      3.20e-3  0.000765      4.19 2.07e-4
    ## # … with 390 more rows
…
You currently have both the intercept and slope terms for each
by-country model. You’re probably more interested in how each is
changing over time, so you want to focus on the slope terms.

-   Print the `country_coefficients` data frame to the console.

-   Perform a `filter()` step that extracts only the slope (not
    intercept) terms.

``` r
# Print the country_coefficients dataset
country_coefficients
```

    ## # A tibble: 400 × 8
    ##    country     data         model  term     estimate std.error statistic p.value
    ##    <chr>       <list>       <list> <chr>       <dbl>     <dbl>     <dbl>   <dbl>
    ##  1 Afghanistan <grouped_df> <lm>   (Interc… -1.11e+1  1.47         -7.52 1.44e-8
    ##  2 Afghanistan <grouped_df> <lm>   year      6.01e-3  0.000743      8.09 3.06e-9
    ##  3 Argentina   <grouped_df> <lm>   (Interc… -9.46e+0  2.10         -4.50 8.32e-5
    ##  4 Argentina   <grouped_df> <lm>   year      5.15e-3  0.00106       4.85 3.05e-5
    ##  5 Australia   <grouped_df> <lm>   (Interc… -4.55e+0  2.15         -2.12 4.22e-2
    ##  6 Australia   <grouped_df> <lm>   year      2.57e-3  0.00108       2.37 2.42e-2
    ##  7 Belarus     <grouped_df> <lm>   (Interc… -7.00e+0  1.50         -4.66 5.33e-5
    ##  8 Belarus     <grouped_df> <lm>   year      3.91e-3  0.000759      5.15 1.28e-5
    ##  9 Belgium     <grouped_df> <lm>   (Interc… -5.85e+0  1.52         -3.86 5.22e-4
    ## 10 Belgium     <grouped_df> <lm>   year      3.20e-3  0.000765      4.19 2.07e-4
    ## # … with 390 more rows

``` r
# Filter for only the slope terms
country_coefficients %>%
    filter(term == "year")
```

    ## # A tibble: 200 × 8
    ##    country     data         model  term  estimate std.error statistic    p.value
    ##    <chr>       <list>       <list> <chr>    <dbl>     <dbl>     <dbl>      <dbl>
    ##  1 Afghanistan <grouped_df> <lm>   year   0.00601  0.000743      8.09    3.06e-9
    ##  2 Argentina   <grouped_df> <lm>   year   0.00515  0.00106       4.85    3.05e-5
    ##  3 Australia   <grouped_df> <lm>   year   0.00257  0.00108       2.37    2.42e-2
    ##  4 Belarus     <grouped_df> <lm>   year   0.00391  0.000759      5.15    1.28e-5
    ##  5 Belgium     <grouped_df> <lm>   year   0.00320  0.000765      4.19    2.07e-4
    ##  6 Bolivia     <grouped_df> <lm>   year   0.00580  0.000966      6.01    1.06e-6
    ##  7 Brazil      <grouped_df> <lm>   year   0.00611  0.000817      7.48    1.64e-8
    ##  8 Canada      <grouped_df> <lm>   year   0.00152  0.000955      1.59    1.22e-1
    ##  9 Chile       <grouped_df> <lm>   year   0.00678  0.000822      8.24    2.05e-9
    ## 10 Colombia    <grouped_df> <lm>   year   0.00616  0.000965      6.38    3.58e-7
    ## # … with 190 more rows
…
``` r
# Filter for only the slope terms
slope_terms <- country_coefficients %>%
  filter(term == "year")

# Add p.adjusted column, then filter
slope_terms %>%
  mutate(p.adjusted = p.adjust(p.value)) %>%
  filter(p.adjusted < 0.05)
```

    ## # A tibble: 61 × 9
    ##    country     data         model  term  estimate std.error statistic    p.value
    ##    <chr>       <list>       <list> <chr>    <dbl>     <dbl>     <dbl>      <dbl>
    ##  1 Afghanistan <grouped_df> <lm>   year   0.00601  0.000743      8.09    3.06e-9
    ##  2 Argentina   <grouped_df> <lm>   year   0.00515  0.00106       4.85    3.05e-5
    ##  3 Belarus     <grouped_df> <lm>   year   0.00391  0.000759      5.15    1.28e-5
    ##  4 Belgium     <grouped_df> <lm>   year   0.00320  0.000765      4.19    2.07e-4
    ##  5 Bolivia     <grouped_df> <lm>   year   0.00580  0.000966      6.01    1.06e-6
    ##  6 Brazil      <grouped_df> <lm>   year   0.00611  0.000817      7.48    1.64e-8
    ##  7 Chile       <grouped_df> <lm>   year   0.00678  0.000822      8.24    2.05e-9
    ##  8 Colombia    <grouped_df> <lm>   year   0.00616  0.000965      6.38    3.58e-7
    ##  9 Costa Rica  <grouped_df> <lm>   year   0.00654  0.000812      8.05    3.39e-9
    ## 10 Cuba        <grouped_df> <lm>   year   0.00461  0.000721      6.40    3.43e-7
    ## # … with 51 more rows, and 1 more variable: p.adjusted <dbl>
…
``` r
# Filter by adjusted p-values
filtered_countries <- country_coefficients %>%
  filter(term == "year") %>%
  mutate(p.adjusted = p.adjust(p.value)) %>%
  filter(p.adjusted < .05)

# Sort for the countries increasing most quickly
filtered_countries %>%
  arrange(desc(estimate))
```

    ## # A tibble: 61 × 9
    ##    country        data         model term  estimate std.error statistic  p.value
    ##    <chr>          <list>       <lis> <chr>    <dbl>     <dbl>     <dbl>    <dbl>
    ##  1 South Africa   <grouped_df> <lm>  year   0.0119   0.00140       8.47 1.60e- 8
    ##  2 Kazakhstan     <grouped_df> <lm>  year   0.0110   0.00195       5.62 3.24e- 4
    ##  3 Yemen Arab Re… <grouped_df> <lm>  year   0.0109   0.00159       6.84 1.20e- 6
    ##  4 Kyrgyzstan     <grouped_df> <lm>  year   0.00973  0.000988      9.84 2.38e- 5
    ##  5 Malawi         <grouped_df> <lm>  year   0.00908  0.00181       5.02 4.48e- 5
    ##  6 Dominican Rep… <grouped_df> <lm>  year   0.00806  0.000914      8.81 5.96e-10
    ##  7 Portugal       <grouped_df> <lm>  year   0.00802  0.00171       4.68 7.13e- 5
    ##  8 Honduras       <grouped_df> <lm>  year   0.00772  0.000921      8.38 1.43e- 9
    ##  9 Peru           <grouped_df> <lm>  year   0.00730  0.000976      7.48 1.65e- 8
    ## 10 Nicaragua      <grouped_df> <lm>  year   0.00708  0.00107       6.60 1.92e- 7
    ## # … with 51 more rows, and 1 more variable: p.adjusted <dbl>

``` r
# Sort for the countries decreasing most quickly
filtered_countries %>%
  arrange(estimate)
```

    ## # A tibble: 61 × 9
    ##    country         data         model term  estimate std.error statistic p.value
    ##    <chr>           <list>       <lis> <chr>    <dbl>     <dbl>     <dbl>   <dbl>
    ##  1 South Korea     <grouped_df> <lm>  year  -0.00921  0.00155      -5.96 1.39e-4
    ##  2 Israel          <grouped_df> <lm>  year  -0.00685  0.00117      -5.85 1.89e-6
    ##  3 United States   <grouped_df> <lm>  year  -0.00624  0.000928     -6.72 1.37e-7
    ##  4 Belgium         <grouped_df> <lm>  year   0.00320  0.000765      4.19 2.07e-4
    ##  5 Guinea          <grouped_df> <lm>  year   0.00362  0.000833      4.35 1.87e-4
    ##  6 Morocco         <grouped_df> <lm>  year   0.00380  0.000860      4.42 1.46e-4
    ##  7 Belarus         <grouped_df> <lm>  year   0.00391  0.000759      5.15 1.28e-5
    ##  8 Iran            <grouped_df> <lm>  year   0.00391  0.000856      4.57 6.91e-5
    ##  9 Congo - Brazza… <grouped_df> <lm>  year   0.00397  0.000922      4.30 2.27e-4
    ## 10 Sudan           <grouped_df> <lm>  year   0.00399  0.000961      4.15 2.98e-4
    ## # … with 51 more rows, and 1 more variable: p.adjusted <dbl>
…
