…
To do this, you’ll make use of the `inner_join()` function from `dplyr`.

``` r
# Load dplyr package
#library(dplyr)

# Print the votes_processed dataset
votes_processed
```

    ## # A tibble: 353,547 × 6
    ##     rcid session  vote ccode  year country           
    ##    <dbl>   <dbl> <dbl> <int> <dbl> <chr>             
    ##  1    46       2     1     2  1947 United States     
    ##  2    46       2     1    20  1947 Canada            
    ##  3    46       2     1    40  1947 Cuba              
    ##  4    46       2     1    41  1947 Haiti             
    ##  5    46       2     1    42  1947 Dominican Republic
    ##  6    46       2     1    70  1947 Mexico            
    ##  7    46       2     1    90  1947 Guatemala         
    ##  8    46       2     1    91  1947 Honduras          
    ##  9    46       2     1    92  1947 El Salvador       
    ## 10    46       2     1    93  1947 Nicaragua         
    ## # … with 353,537 more rows

``` r
# Print the descriptions dataset
descriptions
```

    ## # A tibble: 2,589 × 10
    ##     rcid session date                unres      me    nu    di    hr    co    ec
    ##    <dbl>   <dbl> <dttm>              <chr>   <dbl> <dbl> <dbl> <dbl> <dbl> <dbl>
    ##  1    46       2 1947-09-04 00:00:00 R/2/299     0     0     0     0     0     0
    ##  2    47       2 1947-10-05 00:00:00 R/2/355     0     0     0     1     0     0
    ##  3    48       2 1947-10-06 00:00:00 R/2/461     0     0     0     0     0     0
    ##  4    49       2 1947-10-06 00:00:00 R/2/463     0     0     0     0     0     0
    ##  5    50       2 1947-10-06 00:00:00 R/2/465     0     0     0     0     0     0
    ##  6    51       2 1947-10-02 00:00:00 R/2/561     0     0     0     0     1     0
    ##  7    52       2 1947-11-06 00:00:00 R/2/650     0     0     0     0     1     0
    ##  8    53       2 1947-11-06 00:00:00 R/2/651     0     0     0     0     1     0
    ##  9    54       2 1947-11-06 00:00:00 R/2/651     0     0     0     0     1     0
    ## 10    55       2 1947-11-06 00:00:00 R/2/667     0     0     0     0     1     0
    ## # … with 2,579 more rows
…
6.  **ec**: Economic development

Each contains a `1` if the resolution is related to this topic and a `0`
otherwise.

-   Filter the `votes_joined` dataset for votes relating to colonialism.

``` r
# Filter for votes related to colonialism
votes_joined %>%
    filter(co >= 1)
```

    ## # A tibble: 60,962 × 14
    ##     rcid session  vote ccode  year country date                unres    me    nu
    ##    <dbl>   <dbl> <dbl> <int> <dbl> <chr>   <dttm>              <chr> <dbl> <dbl>
    ##  1    51       2     3     2  1947 United… 1947-10-02 00:00:00 R/2/…     0     0
    ##  2    51       2     3    20  1947 Canada  1947-10-02 00:00:00 R/2/…     0     0
    ##  3    51       2     2    40  1947 Cuba    1947-10-02 00:00:00 R/2/…     0     0
    ##  4    51       2     1    41  1947 Haiti   1947-10-02 00:00:00 R/2/…     0     0
    ##  5    51       2     3    42  1947 Domini… 1947-10-02 00:00:00 R/2/…     0     0
    ##  6    51       2     2    70  1947 Mexico  1947-10-02 00:00:00 R/2/…     0     0
    ##  7    51       2     2    90  1947 Guatem… 1947-10-02 00:00:00 R/2/…     0     0
    ##  8    51       2     2    92  1947 El Sal… 1947-10-02 00:00:00 R/2/…     0     0
    ##  9    51       2     3    93  1947 Nicara… 1947-10-02 00:00:00 R/2/…     0     0
    ## 10    51       2     2    95  1947 Panama  1947-10-02 00:00:00 R/2/…     0     0
    ## # … with 60,952 more rows, and 4 more variables: di <dbl>, hr <dbl>, co <dbl>,
    ## #   ec <dbl>
…
-   In a single `summarize()` call, compute both the total number of
    votes (`total`) and the percentage of “yes” votes (`percent_yes`)
    for each combination of country, year, and topic. Save this as
    `by_country_year_topic`. Make sure that you `ungroup()` after
    summarizing.

-   Print the `by_country_year_topic` dataset to the console.

``` r
# Print votes_tidied
votes_tidied
```

    ## # A tibble: 350,032 × 10
    ##     rcid session  vote ccode  year country       date                unres topic
    ##    <dbl>   <dbl> <dbl> <int> <dbl> <chr>         <dttm>              <chr> <chr>
    ##  1    77       2     1     2  1947 United States 1947-11-06 00:00:00 R/2/… Pale…
    ##  2    77       2     1    20  1947 Canada        1947-11-06 00:00:00 R/2/… Pale…
    ##  3    77       2     3    40  1947 Cuba          1947-11-06 00:00:00 R/2/… Pale…
    ##  4    77       2     1    41  1947 Haiti         1947-11-06 00:00:00 R/2/… Pale…
    ##  5    77       2     1    42  1947 Dominican Re… 1947-11-06 00:00:00 R/2/… Pale…
    ##  6    77       2     2    70  1947 Mexico        1947-11-06 00:00:00 R/2/… Pale…
    ##  7    77       2     1    90  1947 Guatemala     1947-11-06 00:00:00 R/2/… Pale…
    ##  8    77       2     2    91  1947 Honduras      1947-11-06 00:00:00 R/2/… Pale…
    ##  9    77       2     2    92  1947 El Salvador   1947-11-06 00:00:00 R/2/… Pale…
    ## 10    77       2     1    93  1947 Nicaragua     1947-11-06 00:00:00 R/2/… Pale…
    ## # … with 350,022 more rows, and 1 more variable: has_topic <dbl>
…
    ## `summarise()` has grouped output by 'country', 'year'. You can override using
    ## the `.groups` argument.

``` r
# Print by_country_year_topic
by_country_year_topic
```

    ## # A tibble: 26,968 × 5
    ##    country      year topic                                total percent_yes
    ##    <chr>       <dbl> <chr>                                <int>       <dbl>
    ##  1 Afghanistan  1947 Colonialism                              8       0.5  
    ##  2 Afghanistan  1947 Economic development                     1       0    
    ##  3 Afghanistan  1947 Human rights                             1       0    
    ##  4 Afghanistan  1947 Palestinian conflict                     6       0    
    ##  5 Afghanistan  1949 Arms control and disarmament             3       0    
    ##  6 Afghanistan  1949 Colonialism                             22       0.864
    ##  7 Afghanistan  1949 Economic development                     1       1    
    ##  8 Afghanistan  1949 Human rights                             3       0    
    ##  9 Afghanistan  1949 Nuclear weapons and nuclear material     3       0    
    ## 10 Afghanistan  1949 Palestinian conflict                    11       0.818
    ## # … with 26,958 more rows
…
-   Print the `country_topic_coefficients` dataset to the console.

``` r
# Load purrr, tidyr, and broom
library(purrr)
library(tidyr)
library(broom)

# Print by_country_year_topic
by_country_year_topic
```

    ## # A tibble: 26,968 × 5
    ##    country      year topic                                total percent_yes
    ##    <chr>       <dbl> <chr>                                <int>       <dbl>
    ##  1 Afghanistan  1947 Colonialism                              8       0.5  
    ##  2 Afghanistan  1947 Economic development                     1       0    
    ##  3 Afghanistan  1947 Human rights                             1       0    
    ##  4 Afghanistan  1947 Palestinian conflict                     6       0    
    ##  5 Afghanistan  1949 Arms control and disarmament             3       0    
    ##  6 Afghanistan  1949 Colonialism                             22       0.864
    ##  7 Afghanistan  1949 Economic development                     1       1    
    ##  8 Afghanistan  1949 Human rights                             3       0    
    ##  9 Afghanistan  1949 Nuclear weapons and nuclear material     3       0    
    ## 10 Afghanistan  1949 Palestinian conflict                    11       0.818
    ## # … with 26,958 more rows
…
    ## Warning in summary.lm(x): essentially perfect fit: summary may be unreliable

    ## Warning in summary.lm(x): essentially perfect fit: summary may be unreliable

    ## Warning in summary.lm(x): essentially perfect fit: summary may be unreliable

    ## Warning in summary.lm(x): essentially perfect fit: summary may be unreliable

``` r
# Print country_topic_coefficients
country_topic_coefficients
```

    ## # A tibble: 2,384 × 9
    ##    country     topic   data     model term  estimate std.error statistic p.value
    ##    <chr>       <chr>   <list>   <lis> <chr>    <dbl>     <dbl>     <dbl>   <dbl>
    ##  1 Afghanistan Coloni… <tibble> <lm>  (Int… -9.20e+0  1.96         -4.70 4.76e-5
    ##  2 Afghanistan Coloni… <tibble> <lm>  year   5.11e-3  0.000989      5.17 1.23e-5
    ##  3 Afghanistan Econom… <tibble> <lm>  (Int… -1.15e+1  3.62         -3.17 3.49e-3
    ##  4 Afghanistan Econom… <tibble> <lm>  year   6.24e-3  0.00183       3.42 1.85e-3
    ##  5 Afghanistan Human … <tibble> <lm>  (Int… -7.27e+0  4.37         -1.66 1.06e-1
    ##  6 Afghanistan Human … <tibble> <lm>  year   4.08e-3  0.00221       1.85 7.43e-2
    ##  7 Afghanistan Palest… <tibble> <lm>  (Int… -1.33e+1  3.57         -3.73 8.66e-4
    ##  8 Afghanistan Palest… <tibble> <lm>  year   7.17e-3  0.00180       3.98 4.42e-4
    ##  9 Afghanistan Arms c… <tibble> <lm>  (Int… -1.38e+1  4.13         -3.33 2.53e-3
    ## 10 Afghanistan Arms c… <tibble> <lm>  year   7.37e-3  0.00208       3.54 1.49e-3
    ## # … with 2,374 more rows
…
