…
``` r
# Specify that we are interested in late proportions across freight_cost_groups, where "Yes" denotes success
specified <- late_shipments %>%
        specify(
            late ~ freight_cost_group, 
            success = "Yes"
        )

# See the result
specified
```

    ## Response: late (factor)
    ## Explanatory: freight_cost_group (factor)
    ## # A tibble: 1,000 × 2
    ##    late  freight_cost_group
    ##    <fct> <fct>             
    ##  1 No    reasonable        
    ##  2 No    expensive         
    ##  3 No    expensive         
    ##  4 Yes   expensive         
    ##  5 No    reasonable        
    ##  6 No    reasonable        
    ##  7 No    expensive         
    ##  8 No    expensive         
    ##  9 No    expensive         
    ## 10 No    reasonable        
    ## # … with 990 more rows
    ## # ℹ Use `print(n = ...)` to see more rows
…
# See the result
hypothesized
```

    ## Response: late (factor)
    ## Explanatory: freight_cost_group (factor)
    ## Null Hypothesis: independence
    ## # A tibble: 1,000 × 2
    ##    late  freight_cost_group
    ##    <fct> <fct>             
    ##  1 No    reasonable        
    ##  2 No    expensive         
    ##  3 No    expensive         
    ##  4 Yes   expensive         
    ##  5 No    reasonable        
    ##  6 No    reasonable        
    ##  7 No    expensive         
    ##  8 No    expensive         
    ##  9 No    expensive         
    ## 10 No    reasonable        
    ## # … with 990 more rows
    ## # ℹ Use `print(n = ...)` to see more rows
…
    ## Setting `type = "permute"` in `generate()`.

``` r
# See the results
null_distn
```

    ## Response: weight_kilograms (numeric)
    ## Explanatory: late (factor)
    ## Null Hypothesis: independence
    ## # A tibble: 1,000 × 2
    ##    replicate    stat
    ##        <int>   <dbl>
    ##  1         1   389. 
    ##  2         2    84.3
    ##  3         3  -211. 
    ##  4         4   178. 
    ##  5         5   216. 
    ##  6         6   144. 
    ##  7         7   534. 
    ##  8         8    51.6
    ##  9         9  -431. 
    ## 10        10 -2172. 
    ## # … with 990 more rows
    ## # ℹ Use `print(n = ...)` to see more rows
…
