…
-   Remove the `duration_min` column.

``` r
bike_share_rides %>%
  # Group by ride_id and date
  group_by(ride_id, date) %>%
  # Add duration_min_avg column
  mutate(duration_min_avg = mean(duration_min) ) %>%
  # Remove duplicates based on ride_id and date, keep all cols
  distinct(ride_id, date, .keep_all = TRUE) %>%
  # Remove duration_min column
  select(-duration_min)
```

    ## # A tibble: 35,229 × 6
    ## # Groups:   ride_id, date [35,229]
    ##    ride_id date      station_A_id station_A_name   station_B_id duration_min_avg
    ##      <int> <chr>            <int> <chr>                   <int>            <dbl>
    ##  1   52797 4/15/2017           67 San Francisco C�           89          1316   
    ##  2   54540 4/19/2017           21 Montgomery St B�           64             8.13
    ##  3   87695 4/14/2017           16 Steuart St at M�          355            24.8 
    ##  4   45619 4/3/2017            58 Market St at 10�          368             6.35
    ##  5   70832 4/10/2017           16 Steuart St at M�           81             9.8 
    ##  6   96135 4/18/2017            6 The Embarcadero�           66            17.5 
    ##  7   29928 4/22/2017            5 Powell St BART �          350            16.5 
    ##  8   83331 4/11/2017           16 Steuart St at M�           91            14.7 
    ##  9   72424 4/5/2017             5 Powell St BART �           62             4.12
    ## 10   25910 4/20/2017           81 Berry St at 4th�           81            25.8 
    ## # … with 35,219 more rows
…
