…
``` r
potatoes
```

    ## # A tibble: 160 × 8
    ##     area  temp  size storage method texture flavor moistness
    ##    <dbl> <dbl> <dbl>   <dbl>  <dbl>   <dbl>  <dbl>     <dbl>
    ##  1     1     1     1       1      1     2.9    3.2       3  
    ##  2     1     1     1       1      2     2.3    2.5       2.6
    ##  3     1     1     1       1      3     2.5    2.8       2.8
    ##  4     1     1     1       1      4     2.1    2.9       2.4
    ##  5     1     1     1       1      5     1.9    2.8       2.2
    ##  6     1     1     1       2      1     1.8    3         1.7
    ##  7     1     1     1       2      2     2.6    3.1       2.4
    ##  8     1     1     1       2      3     3      3         2.9
    ##  9     1     1     1       2      4     2.2    3.2       2.5
    ## 10     1     1     1       2      5     2      2.8       1.9
    ## # … with 150 more rows
…
# Import the .xls file with gdata: excel_gdata
excel_gdata <- gdata::read.xls(url_xls)

# Download file behind URL, name it local_latitude.xls
dest_path <- file.path("..", "00_Datasets", "local_latitude.xls")
download.file(url_xls, dest_path, mode="wb")


# Import the local .xls file with readxl: excel_readxl
excel_readxl <- readxl::read_excel(dest_path)
excel_readxl
```

    ## # A tibble: 246 × 2
    ##    country               `1700`
    ##    <chr>                  <dbl>
    ##  1 Afghanistan            34.6 
    ##  2 Akrotiri and Dhekelia  34.6 
    ##  3 Albania                41.3 
    ##  4 Algeria                36.7 
    ##  5 American Samoa        -14.3 
    ##  6 Andorra                42.5 
    ##  7 Angola                 -8.84
    ##  8 Anguilla               18.2 
    ##  9 Antigua and Barbuda    17.1 
    ## 10 Argentina             -36.7 
    ## # … with 236 more rows
…
