…
-   Calculate the total `co2_emission` per country by grouping by
    country and taking the sum of `co2_emission`. Call the sum
    `total_emission` and store the resulting data frame as
    `emissions_by_country`.

``` r
# Calculate total co2_emission per country: emissions_by_country
emissions_by_country <- food_consumption %>%
  group_by(country) %>%
  summarise(total_emission = sum(co2_emission))

emissions_by_country
```

    ## # A tibble: 130 × 2
    ##    country    total_emission
    ##    <chr>               <dbl>
    ##  1 Albania             1778.
    ##  2 Algeria              708.
    ##  3 Angola               413.
    ##  4 Argentina           2172.
    ##  5 Armenia             1110.
    ##  6 Australia           1939.
    ##  7 Austria             1211.
    ##  8 Bahamas             1193.
    ##  9 Bangladesh           374.
    ## 10 Barbados             889.
    ## # … with 120 more rows
…
