…
    ## # A tibble: 2 × 5
    ##   term          estimate std.error statistic   p.value
    ##   <chr>            <dbl>     <dbl>     <dbl>     <dbl>
    ## 1 (Intercept)      8.22     0.285       28.9 5.81e-101
    ## 2 n_convenience    0.798    0.0565      14.1 3.41e- 37

-   Augment the model to print the observation-level elements of
    `mdl_price_vs_conv`.

``` r
# Get the observation-level elements of the model
augment(mdl_price_vs_conv)
```

    ## # A tibble: 414 × 8
    ##    price_twd_msq n_convenience .fitted .resid    .hat .sigma  .cooksd .std.resid
    ##            <dbl>         <dbl>   <dbl>  <dbl>   <dbl>  <dbl>    <dbl>      <dbl>
    ##  1         11.5             10   16.2  -4.74  0.0121    3.38  1.22e-2     -1.41 
    ##  2         12.8              9   15.4  -2.64  0.00913   3.39  2.83e-3     -0.783
    ##  3         14.3              5   12.2   2.10  0.00264   3.39  5.10e-4      0.621
    ##  4         16.6              5   12.2   4.37  0.00264   3.38  2.21e-3      1.29 
    ##  5         13.0              5   12.2   0.826 0.00264   3.39  7.92e-5      0.244
    ##  6          9.71             3   10.6  -0.906 0.00275   3.39  9.91e-5     -0.268
    ##  7         12.2              7   13.8  -1.62  0.00477   3.39  5.50e-4     -0.479
    ##  8         14.1              6   13.0   1.12  0.00343   3.39  1.88e-4      0.331
    ##  9          5.69             1    9.02 -3.33  0.00509   3.38  2.49e-3     -0.988
    ## 10          6.69             3   10.6  -3.93  0.00275   3.38  1.87e-3     -1.16 
    ## # … with 404 more rows
…
