…
)

# Add predictions using mdl_price_vs_conv_dist and explanatory_data
prediction_data <- explanatory_data %>%
        mutate(price_twd_msq = predict(mdl_price_vs_conv_dist, explanatory_data))


# See the result
prediction_data
```

    ## # A tibble: 99 × 3
    ##    n_convenience dist_to_mrt_m price_twd_msq
    ##            <int>         <dbl>         <dbl>
    ##  1             0             0         14.7 
    ##  2             0           100         13.3 
    ##  3             0           400         11.9 
    ##  4             0           900         10.5 
    ##  5             0          1600          9.09
    ##  6             0          2500          7.68
    ##  7             0          3600          6.26
    ##  8             0          4900          4.85
    ##  9             0          6400          3.44
    ## 10             1             0         15.2 
    ## # … with 89 more rows
…
# See the result
explanatory_data
```

    ## # A tibble: 297 × 3
    ##    dist_to_mrt_m n_convenience house_age_years
    ##            <dbl>         <int> <ord>          
    ##  1             0             0 30 to 45       
    ##  2             0             0 15 to 30       
    ##  3             0             0 0 to 15        
    ##  4             0             1 30 to 45       
    ##  5             0             1 15 to 30       
    ##  6             0             1 0 to 15        
    ##  7             0             2 30 to 45       
    ##  8             0             2 15 to 30       
    ##  9             0             2 0 to 15        
    ## 10             0             3 30 to 45       
    ## # … with 287 more rows
…
# Add predictions to the data frame
prediction_data <- explanatory_data %>%
      mutate(price_twd_msq = predict(mdl_price_vs_all_3_way_inter, explanatory_data))


# See the result
prediction_data
```

    ## # A tibble: 297 × 4
    ##    dist_to_mrt_m n_convenience house_age_years price_twd_msq
    ##            <dbl>         <int> <ord>                   <dbl>
    ##  1             0             0 30 to 45                 12.1
    ##  2             0             0 15 to 30                 13.8
    ##  3             0             0 0 to 15                  16.0
    ##  4             0             1 30 to 45                 12.5
    ##  5             0             1 15 to 30                 14.2
    ##  6             0             1 0 to 15                  16.4
    ##  7             0             2 30 to 45                 13.0
    ##  8             0             2 15 to 30                 14.7
    ##  9             0             2 0 to 15                  16.8
    ## 10             0             3 30 to 45                 13.4
    ## # … with 287 more rows
…
