…
    ## Rows: 100000 Columns: 3
    ## ── Column specification ────────────────────────────────────────────────────────
    ## Delimiter: ","
    ## chr  (2): r_version, country
    ## dttm (1): datetime
    ## 
    ## ℹ Use `spec()` to retrieve the full column specification for this data.
    ## ℹ Specify the column types or set `show_col_types = FALSE` to quiet this message.

``` r
# Print logs
print(logs)
```

    ## # A tibble: 100,000 × 3
    ##    datetime            r_version country
    ##    <dttm>              <chr>     <chr>  
    ##  1 2015-04-16 22:40:19 3.1.3     CO     
    ##  2 2015-04-16 09:11:04 3.1.3     GB     
    ##  3 2015-04-16 17:12:37 3.1.3     DE     
    ##  4 2015-04-18 12:34:43 3.2.0     GB     
    ##  5 2015-04-16 04:49:18 3.1.3     PE     
    ##  6 2015-04-16 06:40:44 3.1.3     TW     
    ##  7 2015-04-16 00:21:36 3.1.3     US     
    ##  8 2015-04-16 10:27:23 3.1.3     US     
    ##  9 2015-04-16 01:59:43 3.1.3     SG     
    ## 10 2015-04-18 15:41:32 3.2.0     CA     
    ## # … with 99,990 more rows

``` r
# Store the release time as a POSIXct object
release_time <- as.POSIXct("2015-04-16 07:13:33", tz = "UTC")

# When is the first download of 3.2.0?
logs %>% 
  filter(datetime > release_time,
    r_version == "3.2.0")
```

    ## # A tibble: 35,826 × 3
    ##    datetime            r_version country
    ##    <dttm>              <chr>     <chr>  
    ##  1 2015-04-18 12:34:43 3.2.0     GB     
    ##  2 2015-04-18 15:41:32 3.2.0     CA     
    ##  3 2015-04-18 14:58:41 3.2.0     IE     
    ##  4 2015-04-18 16:44:45 3.2.0     US     
    ##  5 2015-04-18 04:34:35 3.2.0     US     
    ##  6 2015-04-18 22:29:45 3.2.0     CH     
    ##  7 2015-04-17 16:21:06 3.2.0     US     
    ##  8 2015-04-18 20:34:57 3.2.0     AT     
    ##  9 2015-04-17 18:23:19 3.2.0     US     
    ## 10 2015-04-18 03:00:31 3.2.0     US     
    ## # … with 35,816 more rows
…
