…
``` r
# Print akl_hourly_raw
akl_hourly_raw
```

    ## # A tibble: 17,454 × 10
    ##     year month  mday time   temperature weather conditions       events humidity
    ##    <dbl> <dbl> <dbl> <time>       <dbl> <chr>   <chr>            <chr>     <dbl>
    ##  1  2016     1     1 00:00         68   Clear   Clear            <NA>         68
    ##  2  2016     1     1 00:30         68   Clear   Clear            <NA>         68
    ##  3  2016     1     1 01:00         68   Clear   Clear            <NA>         73
    ##  4  2016     1     1 01:30         68   Clear   Clear            <NA>         68
    ##  5  2016     1     1 02:00         68   Clear   Clear            <NA>         68
    ##  6  2016     1     1 02:30         68   Clear   Clear            <NA>         68
    ##  7  2016     1     1 03:00         68   Clear   Clear            <NA>         68
    ##  8  2016     1     1 03:30         68   Cloudy  Partly Cloudy    <NA>         68
    ##  9  2016     1     1 04:00         68   Cloudy  Scattered Clouds <NA>         68
    ## 10  2016     1     1 04:30         66.2 Cloudy  Partly Cloudy    <NA>         73
    ## # … with 17,444 more rows, and 1 more variable: date_utc <dttm>
…
# Parse datetime_string 
akl_hourly <- akl_hourly  %>% 
  mutate(
    datetime_string = paste(date, time, sep = "T"),
    datetime = parse_date_time(datetime_string, orders = "ymdHMS")
  )

# Print date, time and datetime columns of akl_hourly
akl_hourly %>% select(date, time, datetime)
```

    ## # A tibble: 17,454 × 3
    ##    date       time   datetime           
    ##    <date>     <time> <dttm>             
    ##  1 2016-01-01 00:00  2016-01-01 00:00:00
    ##  2 2016-01-01 00:30  2016-01-01 00:30:00
    ##  3 2016-01-01 01:00  2016-01-01 01:00:00
    ##  4 2016-01-01 01:30  2016-01-01 01:30:00
    ##  5 2016-01-01 02:00  2016-01-01 02:00:00
    ##  6 2016-01-01 02:30  2016-01-01 02:30:00
    ##  7 2016-01-01 03:00  2016-01-01 03:00:00
    ##  8 2016-01-01 03:30  2016-01-01 03:30:00
    ##  9 2016-01-01 04:00  2016-01-01 04:00:00
    ## 10 2016-01-01 04:30  2016-01-01 04:30:00
    ## # … with 17,444 more rows
…
``` r
# Create day_hour, datetime rounded down to hour
akl_hourly <- akl_hourly %>%
  mutate(
    day_hour = floor_date(datetime, unit = "hour")
  )

# Count observations per hour  
akl_hourly %>% 
  count(day_hour) 
```

    ## # A tibble: 8,770 × 2
    ##    day_hour                n
    ##    <dttm>              <int>
    ##  1 2016-01-01 00:00:00     2
    ##  2 2016-01-01 01:00:00     2
    ##  3 2016-01-01 02:00:00     2
    ##  4 2016-01-01 03:00:00     2
    ##  5 2016-01-01 04:00:00     2
    ##  6 2016-01-01 05:00:00     2
    ##  7 2016-01-01 06:00:00     2
    ##  8 2016-01-01 07:00:00     2
    ##  9 2016-01-01 08:00:00     2
    ## 10 2016-01-01 09:00:00     2
    ## # … with 8,760 more rows

``` r
# Find day_hours with n != 2  
akl_hourly %>% 
  count(day_hour) %>%
  filter(n != 2) %>% 
  arrange(desc(n))
```

    ## # A tibble: 92 × 2
    ##    day_hour                n
    ##    <dttm>              <int>
    ##  1 2016-04-03 02:00:00     4
    ##  2 2016-09-25 00:00:00     4
    ##  3 2016-06-26 09:00:00     1
    ##  4 2016-09-01 23:00:00     1
    ##  5 2016-09-02 01:00:00     1
    ##  6 2016-09-04 11:00:00     1
    ##  7 2016-09-04 16:00:00     1
    ##  8 2016-09-04 17:00:00     1
    ##  9 2016-09-05 00:00:00     1
    ## 10 2016-09-05 15:00:00     1
    ## # … with 82 more rows
…
