…
monarchs_file = file.path("..", "00_Datasets", "monarchs.xlsx")

monarchs <- read_excel(monarchs_file, sheet = 1, col_names = TRUE)
monarchs$from <- as.POSIXct(monarchs$from, format = "%Y-%m-%d %H:%M:%S")
monarchs$to <- as.POSIXct(monarchs$to, format = "%Y-%m-%d %H:%M:%S")
```

``` r
# Print monarchs
 print(monarchs)
```

    ## # A tibble: 131 × 4
    ##    name                     from                to                  dominion 
    ##    <chr>                    <dttm>              <dttm>              <chr>    
    ##  1 Elizabeth II             1952-02-06 00:00:00 2022-07-04 00:00:00 United Ki
    ##  2 Victoria                 1837-06-20 00:00:00 1901-01-22 00:00:00 United Ki
    ##  3 George V                 1910-05-06 00:00:00 1936-01-20 00:00:00 United Ki
    ##  4 George III               1801-01-01 00:00:00 1820-01-29 00:00:00 United Ki
    ##  5 George VI                1936-12-11 00:00:00 1952-02-06 00:00:00 United Ki
    ##  6 George IV                1820-01-29 00:00:00 1830-06-26 00:00:00 United Ki
    ##  7 Edward VII               1901-01-22 00:00:00 1910-05-06 00:00:00 United Ki
    ##  8 William IV               1830-06-26 00:00:00 1837-06-20 00:00:00 United Ki
    ##  9 Edward VIII              1936-01-20 00:00:00 1936-12-11 00:00:00 United Ki
    ## 10 George III(also United ~ 1760-10-25 00:00:00 1801-01-01 00:00:00 Great Bri
    ## # … with 121 more rows

``` r
# Create an interval for reign
monarchs <- monarchs %>%
  mutate(reign = from %--% to) 

# Find the length of reign, and arrange
monarchs %>%
  mutate(length = int_length(reign)) %>% 
  arrange(desc(length)) %>%
  select(name, length, dominion)
```

    ## # A tibble: 131 × 3
    ##    name                   length dominion 
    ##    <chr>                   <dbl> <chr>    
    ##  1 Elizabeth II       2221862400 United Ki
    ##  2 Victoria           2006726400 United Ki
    ##  3 James VI           1820102400 Scotland 
    ##  4 Gruffudd ap Cynan  1767139200 Gwynedd  
    ##  5 Edward III         1590624000 England  
    ##  6 William I          1545868800 Scotland 
    ##  7 Llywelyn the Great 1428796800 Gwynedd  
    ##  8 Elizabeth I        1399507200 England  
    ##  9 Constantine II     1356912000 Scotland 
    ## 10 David II           1316304000 Scotland 
    ## # … with 121 more rows
…
-   Filter `monarchs` to those where `halleys_1066$visible` overlaps
    `reign`.

``` r
halleys_file = file.path("..", "00_Datasets", "halleys.xlsx")

halleys <- read_excel(halleys_file, sheet = 1, col_names = TRUE)
halleys$perihelion_date <- as.Date(halleys$perihelion_date, format = "%Y-%m-%d")
halleys$start_date <- as.Date(halleys$start_date, format = "%Y-%m-%d")
halleys$end_date <- as.Date(halleys$end_date, format = "%Y-%m-%d")
halleys
```

    ## # A tibble: 27 × 6
    ##    designation     year perihelion_date start_date end_date   distance
    ##    <chr>          <dbl> <date>          <date>     <date>     <chr>   
    ##  1 1P/66 B1, 66      66 1966-01-26      1966-01-26 1966-01-26 NA      
    ##  2 1P/141 F1, 141   141 0141-03-25      0141-03-22 0141-03-25 NA      
    ##  3 1P/218 H1, 218   218 0218-04-06      0218-04-06 0218-05-17 NA      
    ##  4 1P/295 J1, 295   295 0295-04-07      0295-04-07 0295-04-20 NA      
    ##  5 1P/374 E1, 374   374 0374-02-13      0374-02-13 0374-02-16 0.09 AU 
    ##  6 1P/451 L1, 451   451 0451-07-03      0451-06-28 0451-07-03 NA      
    ##  7 1P/530 Q1, 530   530 0530-11-15      0530-09-27 0530-11-15 NA      
    ##  8 1P/607 H1, 607   607 0607-03-26      0607-03-15 0607-03-26 0.09 AU 
    ##  9 1P/684 R1, 684   684 0684-11-26      0684-10-02 0684-11-26 NA      
    ## 10 1P/760 K1, 760   760 0760-06-10      0760-05-20 0760-06-10 NA      
    ## # … with 17 more rows

``` r
# Print halleys
print(halleys)
```

    ## # A tibble: 27 × 6
    ##    designation     year perihelion_date start_date end_date   distance
    ##    <chr>          <dbl> <date>          <date>     <date>     <chr>   
    ##  1 1P/66 B1, 66      66 1966-01-26      1966-01-26 1966-01-26 NA      
    ##  2 1P/141 F1, 141   141 0141-03-25      0141-03-22 0141-03-25 NA      
    ##  3 1P/218 H1, 218   218 0218-04-06      0218-04-06 0218-05-17 NA      
    ##  4 1P/295 J1, 295   295 0295-04-07      0295-04-07 0295-04-20 NA      
    ##  5 1P/374 E1, 374   374 0374-02-13      0374-02-13 0374-02-16 0.09 AU 
    ##  6 1P/451 L1, 451   451 0451-07-03      0451-06-28 0451-07-03 NA      
    ##  7 1P/530 Q1, 530   530 0530-11-15      0530-09-27 0530-11-15 NA      
    ##  8 1P/607 H1, 607   607 0607-03-26      0607-03-15 0607-03-26 0.09 AU 
    ##  9 1P/684 R1, 684   684 0684-11-26      0684-10-02 0684-11-26 NA      
    ## 10 1P/760 K1, 760   760 0760-06-10      0760-05-20 0760-06-10 NA      
    ## # … with 17 more rows
…
-   Examine the `name`, `duration` and `period` columns.

``` r
# New columns for duration and period
monarchs <- monarchs %>%
  mutate(
    duration = as.duration(reign),
    period = as.period(reign)) 
    
# Examine results    
monarchs %>%
  select(name, duration, period)
```

    ## # A tibble: 131 × 3
    ##    name                     duration                   period             
    ##    <chr>                    <Duration>                 <Period>           
    ##  1 Elizabeth II             2221862400s (~70.41 years) 70y 4m 28d 0H 0M 0S
    ##  2 Victoria                 2006726400s (~63.59 years) 63y 7m 2d 0H 0M 0S 
    ##  3 George V                 811296000s (~25.71 years)  25y 8m 14d 0H 0M 0S
    ##  4 George III               601948800s (~19.07 years)  19y 0m 28d 0H 0M 0S
    ##  5 George VI                478224412s (~15.15 years)  15y 1m 26d 0H 0M 0S
    ##  6 George IV                328406400s (~10.41 years)  10y 4m 28d 0H 0M 0S
    ##  7 Edward VII               292982400s (~9.28 years)   9y 3m 14d 0H 0M 0S 
    ##  8 William IV               220406400s (~6.98 years)   6y 11m 25d 0H 0M 0S
    ##  9 Edward VIII              28166400s (~46.57 weeks)   10m 21d 0H 0M 0S   
    ## 10 George III(also United ~ 1268092800s (~40.18 years) 40y 2m 7d 0H 0M 0S 
    ## # … with 121 more rows
…
