…
    ## 
    ## $coefficients
    ## # A tibble: 7 × 5
    ##   term              estimate std.error statistic   p.value
    ##   <chr>                <dbl>     <dbl>     <dbl>     <dbl>
    ## 1 (Intercept)         4.09      0.0279   146.    0        
    ## 2 genderfemale        0.374     0.0212    17.6   2.18e- 69
    ## 3 income($25k,$55k]  -0.0199    0.0267    -0.746 4.56e-  1
    ## 4 income($55k,$95k]  -0.581     0.0343   -16.9   3.28e- 64
    ## 5 income($95k,$Inf)  -0.578     0.0310   -18.7   6.88e- 78
    ## 6 travel(0.25h,4h]   -0.627     0.0217   -28.8   5.40e-183
    ## 7 travel(4h,Infh)    -2.42      0.0492   -49.3   0        
    ## 
    ## $observations
    ## # A tibble: 346 × 11
    ##    .rownames n_visits gender income    travel .fitted  .resid .std.resid    .hat
    ##    <chr>        <dbl> <fct>  <fct>     <fct>    <dbl>   <dbl>      <dbl>   <dbl>
    ##  1 25               2 female ($95k,$I… (4h,I…    1.46  -1.24      -1.25  0.0109 
    ##  2 26               1 female ($95k,$I… (4h,I…    1.46  -1.92      -1.93  0.0109 
    ##  3 27               1 male   ($95k,$I… (0.25…    2.88  -5.28      -5.32  0.0129 
    ##  4 29               1 male   ($95k,$I… (4h,I…    1.09  -1.32      -1.33  0.00711
    ##  5 30               1 female ($55k,$9… (4h,I…    1.46  -1.92      -1.93  0.0121 
    ##  6 31               1 male   [$0,$25k] [0h,0…    4.09 -10.4      -10.7   0.0465 
    ##  7 33              80 female [$0,$25k] [0h,0…    4.46  -0.710     -0.728 0.0479 
    ##  8 34             104 female ($95k,$I… [0h,0…    3.88   6.90       7.02  0.0332 
    ##  9 35              55 male   ($25k,$5… (0.25…    3.44   3.85       3.88  0.0153 
    ## 10 36             350 female ($25k,$5… [0h,0…    4.44  21.5       21.9   0.0360 
    ## # … with 336 more rows, and 2 more variables: .sigma <dbl>, .cooksd <dbl>
…
    ## 
    ## $coefficients
    ## # A tibble: 7 × 5
    ##   term              estimate std.error statistic   p.value
    ##   <chr>                <dbl>     <dbl>     <dbl>     <dbl>
    ## 1 (Intercept)         4.09      0.0279   146.    0        
    ## 2 genderfemale        0.374     0.0212    17.6   2.18e- 69
    ## 3 income($25k,$55k]  -0.0199    0.0267    -0.746 4.56e-  1
    ## 4 income($55k,$95k]  -0.581     0.0343   -16.9   3.28e- 64
    ## 5 income($95k,$Inf)  -0.578     0.0310   -18.7   6.88e- 78
    ## 6 travel(0.25h,4h]   -0.627     0.0217   -28.8   5.40e-183
    ## 7 travel(4h,Infh)    -2.42      0.0492   -49.3   0        
    ## 
    ## $observations
    ## # A tibble: 346 × 11
    ##    .rownames n_visits gender income    travel .fitted  .resid .std.resid    .hat
    ##    <chr>        <dbl> <fct>  <fct>     <fct>    <dbl>   <dbl>      <dbl>   <dbl>
    ##  1 25               2 female ($95k,$I… (4h,I…    1.46  -1.24      -1.25  0.0109 
    ##  2 26               1 female ($95k,$I… (4h,I…    1.46  -1.92      -1.93  0.0109 
    ##  3 27               1 male   ($95k,$I… (0.25…    2.88  -5.28      -5.32  0.0129 
    ##  4 29               1 male   ($95k,$I… (4h,I…    1.09  -1.32      -1.33  0.00711
    ##  5 30               1 female ($55k,$9… (4h,I…    1.46  -1.92      -1.93  0.0121 
    ##  6 31               1 male   [$0,$25k] [0h,0…    4.09 -10.4      -10.7   0.0465 
    ##  7 33              80 female [$0,$25k] [0h,0…    4.46  -0.710     -0.728 0.0479 
    ##  8 34             104 female ($95k,$I… [0h,0…    3.88   6.90       7.02  0.0332 
    ##  9 35              55 male   ($25k,$5… (0.25…    3.44   3.85       3.88  0.0153 
    ## 10 36             350 female ($25k,$5… [0h,0…    4.44  21.5       21.9   0.0360 
    ## # … with 336 more rows, and 2 more variables: .sigma <dbl>, .cooksd <dbl>
…
